{"props":{"pageProps":{"dehydratedState":{"mutations":[],"queries":[{"state":{"data":{"country":[{"id":"AR","value":"Argentina","label":"AR"},{"id":"AU","value":"Australia","label":"AU"},{"id":"AT","value":"Austria","label":"AT"},{"id":"BH","value":"Bahrain","label":"BH"},{"id":"BD","value":"Bangladesh","label":"BD"},{"id":"BY","value":"Belarus","label":"BY"},{"id":"BE","value":"Belgium","label":"BE"},{"id":"BR","value":"Brazil","label":"BR"},{"id":"BG","value":"Bulgaria","label":"BG"},{"id":"KH","value":"Cambodia","label":"KH"},{"id":"CA","value":"Canada","label":"CA"},{"id":"CL","value":"Chile","label":"CL"},{"id":"CO","value":"Colombia","label":"CO"},{"id":"HR","value":"Croatia","label":"HR"},{"id":"CZ","value":"Czechia","label":"CZ"},{"id":"DK","value":"Denmark","label":"DK"},{"id":"EG","value":"Egypt","label":"EG"},{"id":"EE","value":"Estonia","label":"EE"},{"id":"FI","value":"Finland","label":"FI"},{"id":"FR","value":"France","label":"FR"},{"id":"DE","value":"Germany","label":"DE"},{"id":"GR","value":"Greece","label":"GR"},{"id":"HU","value":"Hungary","label":"HU"},{"id":"IS","value":"Iceland","label":"IS"},{"id":"ID","value":"Indonesia","label":"ID"},{"id":"IQ","value":"Iraq","label":"IQ"},{"id":"IE","value":"Ireland","label":"IE"},{"id":"IL","value":"Israel","label":"IL"},{"id":"IT","value":"Italy","label":"IT"},{"id":"JP","value":"Japan","label":"JP"},{"id":"JO","value":"Hashemite Kingdom of Jordan","label":"JO"},{"id":"KZ","value":"Kazakhstan","label":"KZ"},{"id":"KW","value":"Kuwait","label":"KW"},{"id":"LV","value":"Latvia","label":"LV"},{"id":"LB","value":"Lebanon","label":"LB"},{"id":"LT","value":"Republic of Lithuania","label":"LT"},{"id":"LU","value":"Luxembourg","label":"LU"},{"id":"MO","value":"Macao","label":"MO"},{"id":"MY","value":"Malaysia","label":"MY"},{"id":"MX","value":"Mexico","label":"MX"},{"id":"MA","value":"Morocco","label":"MA"},{"id":"MM","value":"Myanmar [Burma]","label":"MM"},{"id":"NL","value":"Netherlands","label":"NL"},{"id":"NZ","value":"New Zealand","label":"NZ"},{"id":"NG","value":"Nigeria","label":"NG"},{"id":"NO","value":"Norway","label":"NO"},{"id":"OM","value":"Oman","label":"OM"},{"id":"PK","value":"Pakistan","label":"PK"},{"id":"PE","value":"Peru","label":"PE"},{"id":"PH","value":"Philippines","label":"PH"},{"id":"PL","value":"Poland","label":"PL"},{"id":"PT","value":"Portugal","label":"PT"},{"id":"QA","value":"Qatar","label":"QA"},{"id":"RO","value":"Romania","label":"RO"},{"id":"SA","value":"Saudi Arabia","label":"SA"},{"id":"SG","value":"Singapore","label":"SG"},{"id":"SK","value":"Slovakia","label":"SK"},{"id":"ZA","value":"South Africa","label":"ZA"},{"id":"KR","value":"South Korea","label":"KR"},{"id":"ES","value":"Spain","label":"ES"},{"id":"SE","value":"Sweden","label":"SE"},{"id":"CH","value":"Switzerland","label":"CH"},{"id":"TW","value":"Taiwan","label":"TW"},{"id":"TH","value":"Thailand","label":"TH"},{"id":"TR","value":"Turkey","label":"TR"},{"id":"UA","value":"Ukraine","label":"UA"},{"id":"AE","value":"United Arab Emirates","label":"AE"},{"id":"GB","value":"United Kingdom","label":"GB"},{"id":"US","value":"United States","label":"US"},{"id":"UZ","value":"Uzbekistan","label":"UZ"},{"id":"VN","value":"Vietnam","label":"VN"}],"industry":[{"id":"22000000000","value":"Apparel \u0026 Accessories","label":"label_22000000000"},{"id":"12000000000","value":"Baby, Kids \u0026 Maternity","label":"label_12000000000"},{"id":"14000000000","value":"Beauty \u0026 Personal Care","label":"label_14000000000"},{"id":"24000000000","value":"Business Services","label":"label_24000000000"},{"id":"10000000000","value":"Education","label":"label_10000000000"},{"id":"13000000000","value":"Financial Services","label":"label_13000000000"},{"id":"27000000000","value":"Food \u0026 Beverage","label":"label_27000000000"},{"id":"25000000000","value":"Games","label":"label_25000000000"},{"id":"29000000000","value":"Health","label":"label_29000000000"},{"id":"21000000000","value":"Home Improvement","label":"label_21000000000"},{"id":"18000000000","value":"Household Products","label":"label_18000000000"},{"id":"26000000000","value":"Life Services","label":"label_26000000000"},{"id":"23000000000","value":"News \u0026 Entertainment","label":"label_23000000000"},{"id":"19000000000","value":"Pets","label":"label_19000000000"},{"id":"28000000000","value":"Sports \u0026 Outdoor","label":"label_28000000000"},{"id":"15000000000","value":"Tech \u0026 Electronics","label":"label_15000000000"},{"id":"17000000000","value":"Travel","label":"label_17000000000"},{"id":"11000000000","value":"Vehicle \u0026 Transportation","label":"label_11000000000"}]},"dataUpdateCount":1,"dataUpdatedAt":1771700441772,"error":null,"errorUpdateCount":0,"errorUpdatedAt":0,"fetchFailureCount":0,"fetchFailureReason":null,"fetchMeta":null,"isInvalidated":false,"status":"success","fetchStatus":"idle"},"queryKey":["trend","hashtag","filters"],"queryHash":"[\"trend\",\"hashtag\",\"filters\"]"},{"state":{"data":{"pages":[{"list":[{"trend":[{"time":1771027200,"value":1},{"time":1771113600,"value":0.8},{"time":1771200000,"value":0.83},{"time":1771286400,"value":0.88},{"time":1771372800,"value":0.86},{"time":1771459200,"value":0.92},{"time":1771545600,"value":0.92}],"rank":1,"hashtagId":"1598443717522437","hashtagName":"shabebarat","countryInfo":{"id":"ALL","value":"ALL","label":"ALL"},"isPromoted":false,"publishCnt":2005,"videoViews":11020015,"rankDiff":51,"rankDiffType":1},{"trend":[{"time":1771027200,"value":1},{"time":1771113600,"value":0.56},{"time":1771200000,"value":0.6},{"time":1771286400,"value":0.58},{"time":1771372800,"value":0.58},{"time":1771459200,"value":0.62},{"time":1771545600,"value":0.93}],"creators":[{"nickName":"Cutie Pie","avatarUrl":"https://p16-sign-sg.tiktokcdn.com/tos-alisg-avt-0068/69d7d3a76f03531c098bb963ea658d0e~tplv-tiktokx-cropcenter:100:100.png?dr=14579\u0026refresh_token=e70a895b\u0026x-expires=1771873200\u0026x-signature=zazJXgSvBmkyHKYc1EQw%2FWAao7I%3D\u0026t=4d5b0474\u0026ps=13740610\u0026shp=a5d48078\u0026shcp=317596d8\u0026idc=my2"},{"nickName":"Galicia Gordon","avatarUrl":"https://p16-sign-va.tiktokcdn.com/tos-maliva-avt-0068/a83d99ecd4e1859d1f3a122eaafa7141~tplv-tiktokx-cropcenter:100:100.png?dr=14579\u0026refresh_token=61eaaff0\u0026x-expires=1771873200\u0026x-signature=y%2FgQWW%2BbIPvdiIW9hgNw2jxfiWk%3D\u0026t=4d5b0474\u0026ps=13740610\u0026shp=a5d48078\u0026shcp=317596d8\u0026idc=my2"},{"nickName":"Edna Chár","avatarUrl":"https://p77-sign-va.tiktokcdn.com/tos-maliva-avt-0068/1d2b9c72f822f7098422b147565f11da~tplv-tiktokx-cropcenter:100:100.png?dr=14579\u0026refresh_token=cf39c0db\u0026x-expires=1771873200\u0026x-signature=esttVahRlIMcXOoLxEmefSgnsOo%3D\u0026t=4d5b0474\u0026ps=13740610\u0026shp=a5d48078\u0026shcp=317596d8\u0026idc=my2"}],"rank":2,"hashtagId":"6087","hashtagName":"home","countryInfo":{"id":"ALL","value":"ALL","label":"ALL"},"industryInfo":{"id":21000000000,"value":"Home Improvement","label":"label_21000000000"},"isPromoted":false,"publishCnt":141684,"videoViews":999577622,"rankDiffType":4},{"trend":[{"time":1771027200,"value":0.24},{"time":1771113600,"value":0.22},{"time":1771200000,"value":0.21},{"time":1771286400,"value":0.2},{"time":1771372800,"value":0.19},{"time":1771459200,"value":1},{"time":1771545600,"value":0.79}],"rank":3,"hashtagId":"1675826529971205","hashtagName":"makefriendslive","countryInfo":{"id":"ALL","value":"ALL","label":"ALL"},"isPromoted":false,"publishCnt":44470,"videoViews":221072028,"rankDiff":3,"rankDiffType":1},{"trend":[{"time":1771027200,"value":1},{"time":1771113600,"value":0.96},{"time":1771200000,"value":0.97},{"time":1771286400,"value":0.93},{"time":1771372800,"value":0.95},{"time":1771459200,"value":0.89},{"time":1771545600,"value":0.86}],"rank":4,"hashtagId":"7529600683805245447","hashtagName":"livewithlowfollowers","countryInfo":{"id":"ALL","value":"ALL","label":"ALL"},"isPromoted":false,"publishCnt":14841,"videoViews":110764496,"rankDiffType":4},{"trend":[{"time":1771027200,"value":1},{"time":1771113600,"value":0.9},{"time":1771200000,"value":0.88},{"time":1771286400,"value":0.82},{"time":1771372800,"value":0.79},{"time":1771459200,"value":0.76},{"time":1771545600,"value":0.81}],"rank":5,"hashtagId":"10112568","hashtagName":"epstein","countryInfo":{"id":"ALL","value":"ALL","label":"ALL"},"industryInfo":{"id":23000000000,"value":"News \u0026 Entertainment","label":"label_23000000000"},"isPromoted":false,"publishCnt":111801,"videoViews":2404535988,"rankDiff":2,"rankDiffType":1},{"trend":[{"time":1771027200,"value":1},{"time":1771113600,"value":0.2},{"time":1771200000,"value":0.16},{"time":1771286400,"value":0.15},{"time":1771372800,"value":0.14},{"time":1771459200,"value":0.28},{"time":1771545600,"value":0.81}],"rank":6,"hashtagId":"5190209","hashtagName":"teamworkmakesthedreamwork","countryInfo":{"id":"ALL","value":"ALL","label":"ALL"},"isPromoted":false,"publishCnt":41726,"videoViews":42191807,"rankDiff":47,"rankDiffType":1},{"trend":[{"time":1771027200,"value":1},{"time":1771113600,"value":0.87},{"time":1771200000,"value":0.84},{"time":1771286400,"value":0.79},{"time":1771372800,"value":0.71},{"time":1771459200,"value":0.68},{"time":1771545600,"value":0.75}],"rank":7,"hashtagId":"1673705019541509","hashtagName":"epsteinfiles","countryInfo":{"id":"ALL","value":"ALL","label":"ALL"},"industryInfo":{"id":23000000000,"value":"News \u0026 Entertainment","label":"label_23000000000"},"isPromoted":false,"publishCnt":37835,"videoViews":1076319973,"rankDiff":10,"rankDiffType":1},{"trend":[{"time":1771027200,"value":1},{"time":1771113600,"value":0.91},{"time":1771200000,"value":0.9},{"time":1771286400,"value":0.84},{"time":1771372800,"value":0.75},{"time":1771459200,"value":0.7},{"time":1771545600,"value":0.7}],"rank":8,"hashtagId":"1643327289279493","hashtagName":"epsteinisland","countryInfo":{"id":"ALL","value":"ALL","label":"ALL"},"industryInfo":{"id":23000000000,"value":"News \u0026 Entertainment","label":"label_23000000000"},"isPromoted":false,"publishCnt":35868,"videoViews":791615010,"rankDiff":15,"rankDiffType":1},{"trend":[{"time":1771027200,"value":0.31},{"time":1771113600,"value":1},{"time":1771200000,"value":0.43},{"time":1771286400,"value":0.26},{"time":1771372800,"value":0.21},{"time":1771459200,"value":0.18},{"time":1771545600,"value":0.2}],"rank":9,"hashtagId":"8901606","hashtagName":"magallanes","countryInfo":{"id":"ALL","value":"ALL","label":"ALL"},"industryInfo":{"id":28000000000,"value":"Sports \u0026 Outdoor","label":"label_28000000000"},"isPromoted":false,"publishCnt":3175,"videoViews":32579427,"rankDiffType":4},{"trend":[{"time":1771027200,"value":1},{"time":1771113600,"value":0.39},{"time":1771200000,"value":0.26},{"time":1771286400,"value":0.2},{"time":1771372800,"value":0.12},{"time":1771459200,"value":0.1},{"time":1771545600,"value":0.11}],"creators":[{"nickName":"croumo","avatarUrl":"https://p16-sign-sg.tiktokcdn.com/tos-alisg-avt-0068/fee1c5313f840627d43ec084167059b5~tplv-tiktokx-cropcenter:100:100.png?dr=14579\u0026refresh_token=69680e29\u0026x-expires=1771873200\u0026x-signature=zqnPUmnR6fuNBKtTuT5ilNJxEG4%3D\u0026t=4d5b0474\u0026ps=13740610\u0026shp=a5d48078\u0026shcp=317596d8\u0026idc=my2"},{"nickName":"sel","avatarUrl":"https://p77-sign-sg.tiktokcdn.com/tos-alisg-avt-0068/212cfcb21a5c53d5c305d5e79cf9ccf9~tplv-tiktokx-cropcenter:100:100.png?dr=14579\u0026refresh_token=0ead3717\u0026x-expires=1771873200\u0026x-signature=B3FFLH544V3VKQk%2Fn92dSveItBY%3D\u0026t=4d5b0474\u0026ps=13740610\u0026shp=a5d48078\u0026shcp=317596d8\u0026idc=my2"}],"rank":10,"hashtagId":"32100","hashtagName":"copadelrey","countryInfo":{"id":"ALL","value":"ALL","label":"ALL"},"industryInfo":{"id":28000000000,"value":"Sports \u0026 Outdoor","label":"label_28000000000"},"isPromoted":false,"publishCnt":24048,"videoViews":396643783,"rankDiffType":4},{"trend":[{"time":1771027200,"value":1},{"time":1771113600,"value":0.89},{"time":1771200000,"value":0.81},{"time":1771286400,"value":0.79},{"time":1771372800,"value":0.76},{"time":1771459200,"value":0.77},{"time":1771545600,"value":0.76}],"rank":11,"hashtagId":"1626750785319941","hashtagName":"jeffreyepstein","countryInfo":{"id":"ALL","value":"ALL","label":"ALL"},"industryInfo":{"id":23000000000,"value":"News \u0026 Entertainment","label":"label_23000000000"},"isPromoted":false,"publishCnt":15956,"videoViews":653552431,"rankDiff":20,"rankDiffType":1},{"trend":[{"time":1771027200,"value":1},{"time":1771113600,"value":0.86},{"time":1771200000,"value":0.98},{"time":1771286400,"value":0.94},{"time":1771372800,"value":0.93},{"time":1771459200,"value":0.81},{"time":1771545600,"value":0.82}],"rank":12,"hashtagId":"10855843","hashtagName":"albacete","countryInfo":{"id":"ALL","value":"ALL","label":"ALL"},"industryInfo":{"id":28000000000,"value":"Sports \u0026 Outdoor","label":"label_28000000000"},"isPromoted":false,"publishCnt":553,"videoViews":8411538,"rankDiffType":4},{"trend":[{"time":1771027200,"value":0.83},{"time":1771113600,"value":0.84},{"time":1771200000,"value":0.85},{"time":1771286400,"value":1},{"time":1771372800,"value":0.95},{"time":1771459200,"value":0.84},{"time":1771545600,"value":0.8}],"rank":13,"hashtagId":"1629636545667078","hashtagName":"zibai","countryInfo":{"id":"ALL","value":"ALL","label":"ALL"},"industryInfo":{"id":25000000000,"value":"Games","label":"label_25000000000"},"isPromoted":false,"publishCnt":4481,"videoViews":28640641,"rankDiffType":4},{"trend":[{"time":1771027200,"value":1},{"time":1771113600,"value":0.97},{"time":1771200000,"value":0.75},{"time":1771286400,"value":0.75},{"time":1771372800,"value":0.75},{"time":1771459200,"value":0.72},{"time":1771545600,"value":0.76}],"creators":[{"nickName":"มิ้วกี้ 𝐓𝐡𝐞𝐊𝐨𝐩𝐩","avatarUrl":"https://p16-sign-sg.tiktokcdn.com/tos-alisg-avt-0068/16c7dd98953ba2ca3bd57d492f5868b5~tplv-tiktokx-cropcenter:100:100.png?dr=14579\u0026refresh_token=aa8cc9a7\u0026x-expires=1771873200\u0026x-signature=yna61ONS5NGFe9gjuLbPdzAagGs%3D\u0026t=4d5b0474\u0026ps=13740610\u0026shp=a5d48078\u0026shcp=317596d8\u0026idc=my2"},{"nickName":"CEBOLINHA MIL GRAU","avatarUrl":"https://p77-sign-va.tiktokcdn.com/tos-maliva-avt-0068/ee39fe7633191466f5d210cdbea1c873~tplv-tiktokx-cropcenter:100:100.png?dr=14579\u0026refresh_token=c7f057a1\u0026x-expires=1771873200\u0026x-signature=7%2F0XGPBtwbPyLpTa%2BfSm6trhqEk%3D\u0026t=4d5b0474\u0026ps=13740610\u0026shp=a5d48078\u0026shcp=317596d8\u0026idc=my2"}],"rank":14,"hashtagId":"18948","hashtagName":"chelsea","countryInfo":{"id":"ALL","value":"ALL","label":"ALL"},"industryInfo":{"id":28000000000,"value":"Sports \u0026 Outdoor","label":"label_28000000000"},"isPromoted":false,"publishCnt":35819,"videoViews":426442514,"rankDiffType":4},{"trend":[{"time":1771027200,"value":1},{"time":1771113600,"value":0.98},{"time":1771200000,"value":0.88},{"time":1771286400,"value":0.84},{"time":1771372800,"value":0.84},{"time":1771459200,"value":0.74},{"time":1771545600,"value":0.79}],"creators":[{"nickName":"SpaceAloneSongs","avatarUrl":"https://p16-sign-va.tiktokcdn.com/tos-maliva-avt-0068/86b7e0cc052bb761f874487951e7e5c9~tplv-tiktokx-cropcenter:100:100.png?dr=14579\u0026refresh_token=43e4697a\u0026x-expires=1771873200\u0026x-signature=YpyryxtI8KeMydTj9F3uzVk22E0%3D\u0026t=4d5b0474\u0026ps=13740610\u0026shp=a5d48078\u0026shcp=317596d8\u0026idc=my2"},{"nickName":"🦥Slothie","avatarUrl":"https://p16-sign-sg.tiktokcdn.com/tos-alisg-avt-0068/4faf3c0cfe645079abab5810d06ca5d4~tplv-tiktokx-cropcenter:100:100.png?dr=14579\u0026refresh_token=c940223a\u0026x-expires=1771873200\u0026x-signature=v%2FyUSGc4HY7n8An8aDxjOrwnDDw%3D\u0026t=4d5b0474\u0026ps=13740610\u0026shp=a5d48078\u0026shcp=317596d8\u0026idc=my2"}],"rank":15,"hashtagId":"10946365","hashtagName":"alexwarren","countryInfo":{"id":"ALL","value":"ALL","label":"ALL"},"industryInfo":{"id":23000000000,"value":"News \u0026 Entertainment","label":"label_23000000000"},"isPromoted":false,"publishCnt":4836,"videoViews":80666879,"rankDiff":34,"rankDiffType":1},{"trend":[{"time":1771027200,"value":0.95},{"time":1771113600,"value":1},{"time":1771200000,"value":0.88},{"time":1771286400,"value":0.84},{"time":1771372800,"value":0.78},{"time":1771459200,"value":0.69},{"time":1771545600,"value":0.63}],"creators":[{"nickName":"˗ˏˋ𓊆ྀི𝔹𝕣𝕖𝕟𝕟𝕤𓊇ྀིˎˊ˗","avatarUrl":"https://p16-sign-va.tiktokcdn.com/tos-maliva-avt-0068/2dfee5fff9026481a1379b0340bd1b83~tplv-tiktokx-cropcenter:100:100.png?dr=14579\u0026refresh_token=0fc9bf94\u0026x-expires=1771873200\u0026x-signature=2T8g8g9%2BKtr9LLXb8ZznHDnMt5s%3D\u0026t=4d5b0474\u0026ps=13740610\u0026shp=a5d48078\u0026shcp=317596d8\u0026idc=my2"},{"nickName":"DRN","avatarUrl":"https://p77-sign-va.tiktokcdn.com/tos-maliva-avt-0068/9ac4191a2d78d80857d062e24409235d~tplv-tiktokx-cropcenter:100:100.png?dr=14579\u0026refresh_token=00134f71\u0026x-expires=1771873200\u0026x-signature=40Xeq7UGZGvv3IpyF5TkZBK%2BLNA%3D\u0026t=4d5b0474\u0026ps=13740610\u0026shp=a5d48078\u0026shcp=317596d8\u0026idc=my2"}],"rank":16,"hashtagId":"12799","hashtagName":"stopmotion","countryInfo":{"id":"ALL","value":"ALL","label":"ALL"},"isPromoted":false,"publishCnt":73507,"videoViews":172180236,"rankDiffType":4},{"trend":[{"time":1771027200,"value":0.52},{"time":1771113600,"value":1},{"time":1771200000,"value":0.35},{"time":1771286400,"value":0.17},{"time":1771372800,"value":0.1},{"time":1771459200,"value":0.07},{"time":1771545600,"value":0.06}],"rank":17,"hashtagId":"6499553","hashtagName":"14февраля","countryInfo":{"id":"ALL","value":"ALL","label":"ALL"},"isPromoted":false,"publishCnt":81840,"videoViews":690160828,"rankDiffType":4},{"trend":[{"time":1771027200,"value":1},{"time":1771113600,"value":0.85},{"time":1771200000,"value":0.84},{"time":1771286400,"value":0.83},{"time":1771372800,"value":0.78},{"time":1771459200,"value":0.72},{"time":1771545600,"value":0.72}],"rank":18,"hashtagId":"3043326","hashtagName":"files","countryInfo":{"id":"ALL","value":"ALL","label":"ALL"},"industryInfo":{"id":23000000000,"value":"News \u0026 Entertainment","label":"label_23000000000"},"isPromoted":false,"publishCnt":9837,"videoViews":215272064,"rankDiff":40,"rankDiffType":1},{"trend":[{"time":1771027200,"value":1},{"time":1771113600,"value":0.99},{"time":1771200000,"value":0.98},{"time":1771286400,"value":0.93},{"time":1771372800,"value":0.91},{"time":1771459200,"value":0.87},{"time":1771545600,"value":0.84}],"rank":19,"hashtagId":"7592206626979840022","hashtagName":"stormgoretti","countryInfo":{"id":"ALL","value":"ALL","label":"ALL"},"industryInfo":{"id":23000000000,"value":"News \u0026 Entertainment","label":"label_23000000000"},"isPromoted":false,"publishCnt":11471,"videoViews":334670968,"rankDiffType":4},{"trend":[{"time":1771027200,"value":0.74},{"time":1771113600,"value":0.71},{"time":1771200000,"value":0.71},{"time":1771286400,"value":0.73},{"time":1771372800,"value":1},{"time":1771459200,"value":0.74},{"time":1771545600,"value":0.68}],"rank":20,"hashtagId":"669641","hashtagName":"cmpunk","countryInfo":{"id":"ALL","value":"ALL","label":"ALL"},"industryInfo":{"id":28000000000,"value":"Sports \u0026 Outdoor","label":"label_28000000000"},"isPromoted":false,"publishCnt":3097,"videoViews":51533309,"rankDiffType":4}],"pagination":{"page":1,"size":20,"total":100,"hasMore":true}}],"pageParams":[null]},"dataUpdateCount":1,"dataUpdatedAt":1771700441938,"error":null,"errorUpdateCount":0,"errorUpdatedAt":0,"fetchFailureCount":0,"fetchFailureReason":null,"fetchMeta":null,"isInvalidated":false,"status":"success","fetchStatus":"idle"},"queryKey":["trend","hashtag","list",{"page":1,"limit":20,"period":7,"industryIds":"","keyword":"","filterBy":"","countryCode":""}],"queryHash":"[\"trend\",\"hashtag\",\"list\",{\"countryCode\":\"\",\"filterBy\":\"\",\"industryIds\":\"\",\"keyword\":\"\",\"limit\":20,\"page\":1,\"period\":7}]"}]},"locale":"en","deviceType":"pc"},"__N_SSG":true},"page":"/inspiration/popular/hashtag/[deviceType]/[locale]","query":{"deviceType":"pc","locale":"en"},"buildId":"kZUZrZx3CTMEAIVv_6OQD","assetPrefix":"https://sf16-website.neutral.ttwstatic.com/obj/tiktok_web_static/ads/creative_center_ssr","isFallback":false,"gsp":true,"customServer":true,"scriptLoader":[]}
